{
	"name": "workflow name 1",
	"connections": [{
		"order": 1,
		"components": [{
			"name": "component name 1",
			"type": "lookup",
			"order": 1,
			"config": {
				"Property 1": "Static Value 1",
				"Property 2": "[[Dynamic Value]]",
				"Property 3": "Mix of Static Value and [[Dynamic Value]]"
			}
		}, {
			"name": "component name 2",
			"type": "lookup",
			"order": 2,
			"config": {
				"Property 1": "Static Value 1",
				"Property 2": "[[Dynamic Value]]",
				"Property 3": "Mix of Static Value and [[Dynamic Value]]"
			}
		}]
	}, {
		"order": 2,
		"components": [{
			"name": "component name 2",
			"type": "lookup",
			"order": 1,
			"config": {
				"Property 1": "Static Value 1",
				"Property 2": "[[Dynamic Value]]",
				"Property 3": "Mix of Static Value and [[Dynamic Value]]"
			}
		}, {
			"name": "component name 4",
			"type": "lookup",
			"order": 2,
			"config": {
				"Property 1": "Static Value 1",
				"Property 2": "[[Dynamic Value]]",
				"Property 3": "Mix of Static Value and [[Dynamic Value]]"
			}
		}]
	}, {
		"order": 3,
		"components": [{
			"name": "component name 4",
			"type": "lookup",
			"order": 1,
			"config": {
				"Property 1": "Static Value 1",
				"Property 2": "[[Dynamic Value]]",
				"Property 3": "Mix of Static Value and [[Dynamic Value]]"
			}
		}, {
			"name": "component name 3",
			"type": "lookup",
			"order": 2,
			"config": {
				"Property 1": "Static Value 1",
				"Property 2": "[[Dynamic Value]]",
				"Property 3": "Mix of Static Value and [[Dynamic Value]]"
			}
		}]
	}]
}